{
	"class" : {
		 },
	"instance" : {
		"lispArguments" : "dto 10/25/2022 09:53",
		"lispBegin" : "dto 10/20/2022 18:23",
		"lispFalse" : "dto 10/20/2022 18:28",
		"lispFileExtension" : "dto 10/20/2022 17:09",
		"lispPrelude" : "dto 10/20/2022 18:47",
		"lispTrue" : "dto 10/20/2022 18:28",
		"lispVariableSetter" : "dto 10/20/2022 16:52" } }
